{
  "TABLE_NAME": "biosample",
  "references": [
    {
      "TABLE_NAME": "biosample_2_treatment",
      "REFERENCED_TABLE_NAME": "biosample",
      "COLUMN_NAME": "biosample_accession",
      "REFERENCED_COLUMN_NAME": "biosample_accession"
    },
    {
      "TABLE_NAME": "elisa_result",
      "REFERENCED_TABLE_NAME": "biosample",
      "COLUMN_NAME": "biosample_accession",
      "REFERENCED_COLUMN_NAME": "biosample_accession"
    },
    {
      "TABLE_NAME": "elispot_result",
      "REFERENCED_TABLE_NAME": "biosample",
      "COLUMN_NAME": "biosample_accession",
      "REFERENCED_COLUMN_NAME": "biosample_accession"
    },
    {
      "TABLE_NAME": "expsample_2_biosample",
      "REFERENCED_TABLE_NAME": "biosample",
      "COLUMN_NAME": "biosample_accession",
      "REFERENCED_COLUMN_NAME": "biosample_accession"
    },
    {
      "TABLE_NAME": "fcs_analyzed_result",
      "REFERENCED_TABLE_NAME": "biosample",
      "COLUMN_NAME": "biosample_accession",
      "REFERENCED_COLUMN_NAME": "biosample_accession"
    },
    {
      "TABLE_NAME": "hai_result",
      "REFERENCED_TABLE_NAME": "biosample",
      "COLUMN_NAME": "biosample_accession",
      "REFERENCED_COLUMN_NAME": "biosample_accession"
    },
    {
      "TABLE_NAME": "hla_typing_result",
      "REFERENCED_TABLE_NAME": "biosample",
      "COLUMN_NAME": "biosample_accession",
      "REFERENCED_COLUMN_NAME": "biosample_accession"
    },
    {
      "TABLE_NAME": "kir_typing_result",
      "REFERENCED_TABLE_NAME": "biosample",
      "COLUMN_NAME": "biosample_accession",
      "REFERENCED_COLUMN_NAME": "biosample_accession"
    },
    {
      "TABLE_NAME": "lab_test",
      "REFERENCED_TABLE_NAME": "biosample",
      "COLUMN_NAME": "biosample_accession",
      "REFERENCED_COLUMN_NAME": "biosample_accession"
    },
    {
      "TABLE_NAME": "mbaa_result",
      "REFERENCED_TABLE_NAME": "biosample",
      "COLUMN_NAME": "biosample_accession",
      "REFERENCED_COLUMN_NAME": "biosample_accession"
    },
    {
      "TABLE_NAME": "neut_ab_titer_result",
      "REFERENCED_TABLE_NAME": "biosample",
      "COLUMN_NAME": "biosample_accession",
      "REFERENCED_COLUMN_NAME": "biosample_accession"
    },
    {
      "TABLE_NAME": "pcr_result",
      "REFERENCED_TABLE_NAME": "biosample",
      "COLUMN_NAME": "biosample_accession",
      "REFERENCED_COLUMN_NAME": "biosample_accession"
    }
  ],
  "TABLE_COMMENT": "Material extracted from a subject that has undergone isolation, processing and/or treatment prior to use in an assay or test. Attributes include all treatments and reagents used for sample processing and EXCLUDE reagents used to measure analytes.",
  "fields": [
    {
      "COLUMN_TYPE": "varchar(15)",
      "FOREIGN_KEYS": [],
      "COLUMN_NAME": "biosample_accession",
      "COLUMN_COMMENT": "Primary key.",
      "IS_NULLABLE": "NOT NULL"
    },
    {
      "COLUMN_TYPE": "varchar(4000)",
      "FOREIGN_KEYS": [],
      "COLUMN_NAME": "description",
      "COLUMN_COMMENT": "Long text description.",
      "IS_NULLABLE": ""
    },
    {
      "COLUMN_TYPE": "varchar(200)",
      "FOREIGN_KEYS": [],
      "COLUMN_NAME": "name",
      "COLUMN_COMMENT": "Short name or identifier.",
      "IS_NULLABLE": ""
    },
    {
      "COLUMN_TYPE": "varchar(15)",
      "FOREIGN_KEYS": [
        {
          "REFERENCED_COLUMN_NAME": "planned_visit_accession",
          "REFERENCED_TABLE_NAME": "planned_visit"
        }
      ],
      "COLUMN_NAME": "planned_visit_accession",
      "COLUMN_COMMENT": "Reference to the planned visit in the planned_visit table.",
      "IS_NULLABLE": ""
    },
    {
      "COLUMN_TYPE": "varchar(15)",
      "FOREIGN_KEYS": [
        {
          "REFERENCED_COLUMN_NAME": "study_accession",
          "REFERENCED_TABLE_NAME": "study"
        }
      ],
      "COLUMN_NAME": "study_accession",
      "COLUMN_COMMENT": "Reference to the study defined in the study table.",
      "IS_NULLABLE": ""
    },
    {
      "COLUMN_TYPE": "float",
      "FOREIGN_KEYS": [],
      "COLUMN_NAME": "study_time_collected",
      "COLUMN_COMMENT": "Based on the time collected unit, the time when the sample was collected.",
      "IS_NULLABLE": ""
    },
    {
      "COLUMN_TYPE": "varchar(25)",
      "FOREIGN_KEYS": [
        {
          "REFERENCED_COLUMN_NAME": "name",
          "REFERENCED_TABLE_NAME": "lk_time_unit"
        }
      ],
      "COLUMN_NAME": "study_time_collected_unit",
      "COLUMN_COMMENT": "Reference to the unit in the lk_time_unit table.",
      "IS_NULLABLE": "NOT NULL"
    },
    {
      "COLUMN_TYPE": "varchar(50)",
      "FOREIGN_KEYS": [
        {
          "REFERENCED_COLUMN_NAME": "name",
          "REFERENCED_TABLE_NAME": "lk_t0_event"
        }
      ],
      "COLUMN_NAME": "study_time_t0_event",
      "COLUMN_COMMENT": "Reference to the event type in the lk_t0_event table.",
      "IS_NULLABLE": "NOT NULL"
    },
    {
      "COLUMN_TYPE": "varchar(50)",
      "FOREIGN_KEYS": [],
      "COLUMN_NAME": "study_time_t0_event_specify",
      "COLUMN_COMMENT": "If 'study time t0 event' = Other, this field specifies the study time t0 event.",
      "IS_NULLABLE": ""
    },
    {
      "COLUMN_TYPE": "varchar(15)",
      "FOREIGN_KEYS": [
        {
          "REFERENCED_COLUMN_NAME": "subject_accession",
          "REFERENCED_TABLE_NAME": "subject"
        }
      ],
      "COLUMN_NAME": "subject_accession",
      "COLUMN_COMMENT": "Reference to the subject in the subject table.",
      "IS_NULLABLE": "NOT NULL"
    },
    {
      "COLUMN_TYPE": "varchar(50)",
      "FOREIGN_KEYS": [],
      "COLUMN_NAME": "subtype",
      "COLUMN_COMMENT": "Subcategory of sample type.",
      "IS_NULLABLE": ""
    },
    {
      "COLUMN_TYPE": "varchar(50)",
      "FOREIGN_KEYS": [
        {
          "REFERENCED_COLUMN_NAME": "name",
          "REFERENCED_TABLE_NAME": "lk_sample_type"
        }
      ],
      "COLUMN_NAME": "type",
      "COLUMN_COMMENT": "Reference to the sample types in the  lk_sample_type table.",
      "IS_NULLABLE": "NOT NULL"
    },
    {
      "COLUMN_TYPE": "int(11)",
      "FOREIGN_KEYS": [
        {
          "REFERENCED_COLUMN_NAME": "workspace_id",
          "REFERENCED_TABLE_NAME": "workspace"
        }
      ],
      "COLUMN_NAME": "workspace_id",
      "COLUMN_COMMENT": "Reference to the workspace to which this record is currently assigned; duplicated for reporting purposes but not utilized in permissions.",
      "IS_NULLABLE": "NOT NULL"
    }
  ],
  "indexes": [
    {
      "Index_type": "BTREE",
      "Key_name": "PRIMARY",
      "Column_name": "biosample_accession"
    },
    {
      "Index_type": "BTREE",
      "Key_name": "idx_biosample_subject",
      "Column_name": "subject_accession"
    },
    {
      "Index_type": "BTREE",
      "Key_name": "idx_biosample_study",
      "Column_name": "study_accession"
    },
    {
      "Index_type": "BTREE",
      "Key_name": "idx_biosample_planned_visit",
      "Column_name": "planned_visit_accession"
    },
    {
      "Index_type": "BTREE",
      "Key_name": "idx_biosample_workspace",
      "Column_name": "workspace_id"
    },
    {
      "Index_type": "BTREE",
      "Key_name": "fk_biosample_5",
      "Column_name": "study_time_collected_unit"
    },
    {
      "Index_type": "BTREE",
      "Key_name": "fk_biosample_6",
      "Column_name": "study_time_t0_event"
    },
    {
      "Index_type": "BTREE",
      "Key_name": "fk_biosample_8",
      "Column_name": "type"
    }
  ]
}