{
  "TABLE_NAME": "experiment_2_protocol",
  "references": [],
  "TABLE_COMMENT": "Join table that associates EXPERIMENT with PROTOCOL table records.",
  "fields": [
    {
      "COLUMN_TYPE": "varchar(15)",
      "FOREIGN_KEYS": [
        {
          "REFERENCED_COLUMN_NAME": "experiment_accession",
          "REFERENCED_TABLE_NAME": "experiment"
        }
      ],
      "COLUMN_NAME": "experiment_accession",
      "COLUMN_COMMENT": "Reference to experiment in the EXPERIMENT table.",
      "IS_NULLABLE": "NOT NULL"
    },
    {
      "COLUMN_TYPE": "varchar(15)",
      "FOREIGN_KEYS": [
        {
          "REFERENCED_COLUMN_NAME": "protocol_accession",
          "REFERENCED_TABLE_NAME": "protocol"
        }
      ],
      "COLUMN_NAME": "protocol_accession",
      "COLUMN_COMMENT": "Reference to protocol in the PROTOCOL table.",
      "IS_NULLABLE": "NOT NULL"
    }
  ],
  "indexes": [
    {
      "Index_type": "BTREE",
      "Key_name": "PRIMARY",
      "Column_name": "experiment_accession"
    },
    {
      "Index_type": "BTREE",
      "Key_name": "PRIMARY",
      "Column_name": "protocol_accession"
    },
    {
      "Index_type": "BTREE",
      "Key_name": "idx_experiment_2_protocol",
      "Column_name": "protocol_accession"
    },
    {
      "Index_type": "BTREE",
      "Key_name": "idx_experiment_2_protocol",
      "Column_name": "experiment_accession"
    }
  ]
}