{
  "TABLE_NAME": "inclusion_exclusion",
  "references": [],
  "TABLE_COMMENT": "Defines the criteria by which subjects are excluded from or included in a study.",
  "fields": [
    {
      "COLUMN_TYPE": "varchar(15)",
      "FOREIGN_KEYS": [],
      "COLUMN_NAME": "criterion_accession",
      "COLUMN_COMMENT": "Primary key",
      "IS_NULLABLE": "NOT NULL"
    },
    {
      "COLUMN_TYPE": "varchar(750)",
      "FOREIGN_KEYS": [],
      "COLUMN_NAME": "criterion",
      "COLUMN_COMMENT": "May be in the form of a question or a statement, such as: Does subject intend to remain in the ragweed pollen area for the entire ragweed season? if the criteria are in the form of a question then to be included in the study the subject answers for inclusion criteria should be yes and the answers to exclusion criteria should be no.",
      "IS_NULLABLE": ""
    },
    {
      "COLUMN_TYPE": "varchar(40)",
      "FOREIGN_KEYS": [
        {
          "REFERENCED_COLUMN_NAME": "name",
          "REFERENCED_TABLE_NAME": "lk_criterion_category"
        }
      ],
      "COLUMN_NAME": "criterion_category",
      "COLUMN_COMMENT": "Value of either inclusion or exclusion.",
      "IS_NULLABLE": ""
    },
    {
      "COLUMN_TYPE": "varchar(15)",
      "FOREIGN_KEYS": [
        {
          "REFERENCED_COLUMN_NAME": "study_accession",
          "REFERENCED_TABLE_NAME": "study"
        }
      ],
      "COLUMN_NAME": "study_accession",
      "COLUMN_COMMENT": "Reference to the study defined in the STUDY table.",
      "IS_NULLABLE": "NOT NULL"
    },
    {
      "COLUMN_TYPE": "int(11)",
      "FOREIGN_KEYS": [
        {
          "REFERENCED_COLUMN_NAME": "workspace_id",
          "REFERENCED_TABLE_NAME": "workspace"
        }
      ],
      "COLUMN_NAME": "workspace_id",
      "COLUMN_COMMENT": "Reference to the workspace to which this record is currently assigned; duplicated for reporting purposes but not utilized in permissions.",
      "IS_NULLABLE": "NOT NULL"
    }
  ],
  "indexes": [
    {
      "Index_type": "BTREE",
      "Key_name": "PRIMARY",
      "Column_name": "criterion_accession"
    },
    {
      "Index_type": "BTREE",
      "Key_name": "fk_inclusion_exclusion_1",
      "Column_name": "study_accession"
    },
    {
      "Index_type": "BTREE",
      "Key_name": "fk_inclusion_exclusion_2",
      "Column_name": "workspace_id"
    },
    {
      "Index_type": "BTREE",
      "Key_name": "fk_inclusion_exclusion_3",
      "Column_name": "criterion_category"
    }
  ]
}