{
  "TABLE_NAME": "lk_adverse_event_severity",
  "references": [
    {
      "TABLE_NAME": "adverse_event",
      "REFERENCED_TABLE_NAME": "lk_adverse_event_severity",
      "COLUMN_NAME": "severity_preferred",
      "REFERENCED_COLUMN_NAME": "name"
    }
  ],
  "TABLE_COMMENT": "Controlled vocabulary to categorize the severity of a recorded adverse event.",
  "fields": [
    {
      "COLUMN_TYPE": "varchar(60)",
      "FOREIGN_KEYS": [],
      "COLUMN_NAME": "name",
      "COLUMN_COMMENT": "short name or identifier.",
      "IS_NULLABLE": "NOT NULL"
    },
    {
      "COLUMN_TYPE": "varchar(1000)",
      "FOREIGN_KEYS": [],
      "COLUMN_NAME": "description",
      "COLUMN_COMMENT": "long text description.",
      "IS_NULLABLE": ""
    },
    {
      "COLUMN_TYPE": "varchar(2000)",
      "FOREIGN_KEYS": [],
      "COLUMN_NAME": "link",
      "COLUMN_COMMENT": "link to external term",
      "IS_NULLABLE": ""
    }
  ],
  "indexes": [
    {
      "Index_type": "BTREE",
      "Key_name": "PRIMARY",
      "Column_name": "name"
    }
  ]
}