{
  "TABLE_NAME": "lk_source_type",
  "references": [
    {
      "TABLE_NAME": "mbaa_result",
      "REFERENCED_TABLE_NAME": "lk_source_type",
      "COLUMN_NAME": "source_type",
      "REFERENCED_COLUMN_NAME": "name"
    }
  ],
  "TABLE_COMMENT": "Controlled vocabulary for describing MBAA (Luminex) values.",
  "fields": [
    {
      "COLUMN_TYPE": "varchar(30)",
      "FOREIGN_KEYS": [],
      "COLUMN_NAME": "name",
      "COLUMN_COMMENT": "short name or identifier.",
      "IS_NULLABLE": "NOT NULL"
    },
    {
      "COLUMN_TYPE": "varchar(1000)",
      "FOREIGN_KEYS": [],
      "COLUMN_NAME": "description",
      "COLUMN_COMMENT": "long text description.",
      "IS_NULLABLE": ""
    },
    {
      "COLUMN_TYPE": "varchar(2000)",
      "FOREIGN_KEYS": [],
      "COLUMN_NAME": "link",
      "COLUMN_COMMENT": "link to external term",
      "IS_NULLABLE": ""
    }
  ],
  "indexes": [
    {
      "Index_type": "BTREE",
      "Key_name": "PRIMARY",
      "Column_name": "name"
    }
  ]
}