{
  "TABLE_NAME": "lk_virus_strain",
  "references": [
    {
      "TABLE_NAME": "hai_result",
      "REFERENCED_TABLE_NAME": "lk_virus_strain",
      "COLUMN_NAME": "virus_strain_preferred",
      "REFERENCED_COLUMN_NAME": "name"
    },
    {
      "TABLE_NAME": "neut_ab_titer_result",
      "REFERENCED_TABLE_NAME": "lk_virus_strain",
      "COLUMN_NAME": "virus_strain_preferred",
      "REFERENCED_COLUMN_NAME": "name"
    }
  ],
  "TABLE_COMMENT": "Controlled vocabulary for virus strains.",
  "fields": [
    {
      "COLUMN_TYPE": "varchar(200)",
      "FOREIGN_KEYS": [],
      "COLUMN_NAME": "name",
      "COLUMN_COMMENT": "short name or idenifier.",
      "IS_NULLABLE": "NOT NULL"
    },
    {
      "COLUMN_TYPE": "varchar(500)",
      "FOREIGN_KEYS": [],
      "COLUMN_NAME": "center_id_name_season_list",
      "COLUMN_COMMENT": "group studing virus, plus the season",
      "IS_NULLABLE": ""
    },
    {
      "COLUMN_TYPE": "varchar(1000)",
      "FOREIGN_KEYS": [],
      "COLUMN_NAME": "description",
      "COLUMN_COMMENT": "long text description.",
      "IS_NULLABLE": ""
    },
    {
      "COLUMN_TYPE": "varchar(2000)",
      "FOREIGN_KEYS": [],
      "COLUMN_NAME": "link",
      "COLUMN_COMMENT": "url to cv term definition",
      "IS_NULLABLE": ""
    },
    {
      "COLUMN_TYPE": "varchar(100)",
      "FOREIGN_KEYS": [],
      "COLUMN_NAME": "season_list",
      "COLUMN_COMMENT": "list of seasons for the virus",
      "IS_NULLABLE": ""
    },
    {
      "COLUMN_TYPE": "int(11)",
      "FOREIGN_KEYS": [],
      "COLUMN_NAME": "taxonomy_id",
      "COLUMN_COMMENT": "",
      "IS_NULLABLE": ""
    },
    {
      "COLUMN_TYPE": "varchar(10)",
      "FOREIGN_KEYS": [],
      "COLUMN_NAME": "virus_name",
      "COLUMN_COMMENT": "short name for virus. ex. h1n1, h3n2",
      "IS_NULLABLE": ""
    }
  ],
  "indexes": [
    {
      "Index_type": "BTREE",
      "Key_name": "PRIMARY",
      "Column_name": "name"
    }
  ]
}