{
  "TABLE_NAME": "planned_visit_2_arm",
  "references": [],
  "TABLE_COMMENT": "Join table that associates PLANNED_VISIT and ARM.",
  "fields": [
    {
      "COLUMN_TYPE": "varchar(15)",
      "FOREIGN_KEYS": [
        {
          "REFERENCED_COLUMN_NAME": "planned_visit_accession",
          "REFERENCED_TABLE_NAME": "planned_visit"
        }
      ],
      "COLUMN_NAME": "planned_visit_accession",
      "COLUMN_COMMENT": "reference to the planned_visit in the planned_visit table.",
      "IS_NULLABLE": "NOT NULL"
    },
    {
      "COLUMN_TYPE": "varchar(15)",
      "FOREIGN_KEYS": [
        {
          "REFERENCED_COLUMN_NAME": "arm_accession",
          "REFERENCED_TABLE_NAME": "arm_or_cohort"
        }
      ],
      "COLUMN_NAME": "arm_accession",
      "COLUMN_COMMENT": "reference to the arm in the arm_or_cohort table.",
      "IS_NULLABLE": "NOT NULL"
    }
  ],
  "indexes": [
    {
      "Index_type": "BTREE",
      "Key_name": "PRIMARY",
      "Column_name": "planned_visit_accession"
    },
    {
      "Index_type": "BTREE",
      "Key_name": "PRIMARY",
      "Column_name": "arm_accession"
    },
    {
      "Index_type": "BTREE",
      "Key_name": "fk_planned_visit_2_arm_2",
      "Column_name": "arm_accession"
    }
  ]
}