{
  "studyTitle": "Steroid Withdrawal in Pediatric Kidney Transplant Recipients (SW01)", 
  "dataCompleteness": 1, 
  "studyAccession": "SDY133", 
  "downloadFiles": [
    {
      "filePurpose": "Protocols", 
      "manifest": "", 
      "fileNames": [
        {
          "manifest": "SDY133-DR14_Protocols_1.zip.content.txt", 
          "name": "SDY133-DR14_Protocols_1.zip", 
          "size": "0.21MB"
        }
      ]
    }, 
    {
      "filePurpose": "StudyFiles", 
      "manifest": "", 
      "fileNames": [
        {
          "manifest": "SDY133-DR14_StudyFiles_1.zip.content.txt", 
          "name": "SDY133-DR14_StudyFiles_1.zip", 
          "size": "0.74MB"
        }
      ]
    }
  ], 
  "dataRelease": "DR14", 
  "studyTables": [
    {
      "count": "3", 
      "name": "ArmOrCohort"
    }, 
    {
      "count": "7", 
      "name": "InclusionExclusion"
    }, 
    {
      "count": "1", 
      "name": "Period"
    }, 
    {
      "count": "62", 
      "name": "PlannedVisit"
    }, 
    {
      "count": "1", 
      "name": "Protocol"
    }, 
    {
      "count": "31", 
      "name": "StudyFile"
    }, 
    {
      "count": "1", 
      "name": "StudyLink"
    }, 
    {
      "count": "1", 
      "name": "StudyPersonnel"
    }, 
    {
      "count": "3", 
      "name": "StudyPubmed"
    }, 
    {
      "count": "272", 
      "name": "Subject"
    }
  ]
}