{
  "studyTitle": "VRC304 - A Phase I Study of the Safety and Immunogenicity of a Recombinant DNA Plasmid Vaccine (VRC-AVIDNA036-00-VP) Encoding for the Influenza Virus H5 Hemagglutinin Protein in Healthy Adults", 
  "dataCompleteness": 2, 
  "studyAccession": "SDY167", 
  "downloadFiles": [
    {
      "filePurpose": "Flow cytometry result", 
      "manifest": "SDY167-DR14_Subject_2_Flow_cytometry_result.txt", 
      "fileNames": [
        {
          "manifest": "SDY167-DR14_Flow_cytometry_result_1.zip.content.txt", 
          "name": "SDY167-DR14_Flow_cytometry_result_1.zip", 
          "size": "1211.69MB"
        }, 
        {
          "manifest": "SDY167-DR14_Flow_cytometry_result_2.zip.content.txt", 
          "name": "SDY167-DR14_Flow_cytometry_result_2.zip", 
          "size": "1193.58MB"
        }, 
        {
          "manifest": "SDY167-DR14_Flow_cytometry_result_3.zip.content.txt", 
          "name": "SDY167-DR14_Flow_cytometry_result_3.zip", 
          "size": "927.23MB"
        }
      ]
    }, 
    {
      "filePurpose": "Flow cytometry compensation or control", 
      "manifest": "SDY167-DR14_Subject_2_Flow_cytometry_compensation_or_control.txt", 
      "fileNames": [
        {
          "manifest": "SDY167-DR14_Flow_cytometry_compensation_or_control_1.zip.content.txt", 
          "name": "SDY167-DR14_Flow_cytometry_compensation_or_control_1.zip", 
          "size": "49.56MB"
        }
      ]
    }, 
    {
      "filePurpose": "Protocols", 
      "manifest": "", 
      "fileNames": [
        {
          "manifest": "SDY167-DR14_Protocols_1.zip.content.txt", 
          "name": "SDY167-DR14_Protocols_1.zip", 
          "size": "0.42MB"
        }
      ]
    }, 
    {
      "filePurpose": "StudyFiles", 
      "manifest": "", 
      "fileNames": [
        {
          "manifest": "SDY167-DR14_StudyFiles_1.zip.content.txt", 
          "name": "SDY167-DR14_StudyFiles_1.zip", 
          "size": "0.09MB"
        }
      ]
    }
  ], 
  "dataRelease": "DR14", 
  "studyTables": [
    {
      "count": "142", 
      "name": "AdverseEvent"
    }, 
    {
      "count": "3", 
      "name": "ArmOrCohort"
    }, 
    {
      "count": "439", 
      "name": "Biosample"
    }, 
    {
      "count": "430", 
      "name": "ElisaResult"
    }, 
    {
      "count": "300", 
      "name": "ElispotResult"
    }, 
    {
      "count": "6", 
      "name": "Experiment"
    }, 
    {
      "count": "1736", 
      "name": "Expsample"
    }, 
    {
      "count": "602", 
      "name": "FcsAnalyzedResult"
    }, 
    {
      "count": "867", 
      "name": "FcsHeader"
    }, 
    {
      "count": "1884", 
      "name": "FileInfo"
    }, 
    {
      "count": "44", 
      "name": "HaiResult"
    }, 
    {
      "count": "47", 
      "name": "InclusionExclusion"
    }, 
    {
      "count": "88", 
      "name": "NeutAbTiterResult"
    }, 
    {
      "count": "1", 
      "name": "Period"
    }, 
    {
      "count": "16", 
      "name": "PlannedVisit"
    }, 
    {
      "count": "6", 
      "name": "Protocol"
    }, 
    {
      "count": "10", 
      "name": "Reagent"
    }, 
    {
      "count": "10", 
      "name": "StudyFile"
    }, 
    {
      "count": "1", 
      "name": "StudyLink"
    }, 
    {
      "count": "1", 
      "name": "StudyPersonnel"
    }, 
    {
      "count": "1", 
      "name": "StudyPubmed"
    }, 
    {
      "count": "45", 
      "name": "Subject"
    }
  ]
}