{
  "studyTitle": "Responses to Influenza Vaccination in Systemic Lupus Year 4 2008-2009", 
  "dataCompleteness": 2, 
  "studyAccession": "SDY199", 
  "downloadFiles": [
    {
      "filePurpose": "Flow cytometry result", 
      "manifest": "SDY199-DR14_Subject_2_Flow_cytometry_result.txt", 
      "fileNames": [
        {
          "manifest": "SDY199-DR14_Flow_cytometry_result_1.zip.content.txt", 
          "name": "SDY199-DR14_Flow_cytometry_result_1.zip", 
          "size": "361.68MB"
        }
      ]
    }, 
    {
      "filePurpose": "Flow cytometry compensation or control", 
      "manifest": "SDY199-DR14_Subject_2_Flow_cytometry_compensation_or_control.txt", 
      "fileNames": [
        {
          "manifest": "SDY199-DR14_Flow_cytometry_compensation_or_control_1.zip.content.txt", 
          "name": "SDY199-DR14_Flow_cytometry_compensation_or_control_1.zip", 
          "size": "97.36MB"
        }
      ]
    }, 
    {
      "filePurpose": "Protocols", 
      "manifest": "", 
      "fileNames": [
        {
          "manifest": "SDY199-DR14_Protocols_1.zip.content.txt", 
          "name": "SDY199-DR14_Protocols_1.zip", 
          "size": "0.55MB"
        }
      ]
    }, 
    {
      "filePurpose": "StudyFiles", 
      "manifest": "", 
      "fileNames": [
        {
          "manifest": "SDY199-DR14_StudyFiles_1.zip.content.txt", 
          "name": "SDY199-DR14_StudyFiles_1.zip", 
          "size": "0.01MB"
        }
      ]
    }
  ], 
  "dataRelease": "DR14", 
  "studyTables": [
    {
      "count": "2", 
      "name": "ArmOrCohort"
    }, 
    {
      "count": "1422", 
      "name": "Biosample"
    }, 
    {
      "count": "273", 
      "name": "ElispotResult"
    }, 
    {
      "count": "4", 
      "name": "Experiment"
    }, 
    {
      "count": "2854", 
      "name": "Expsample"
    }, 
    {
      "count": "2440", 
      "name": "FcsHeader"
    }, 
    {
      "count": "5505", 
      "name": "FileInfo"
    }, 
    {
      "count": "138", 
      "name": "HaiResult"
    }, 
    {
      "count": "4", 
      "name": "InclusionExclusion"
    }, 
    {
      "count": "1", 
      "name": "Period"
    }, 
    {
      "count": "4", 
      "name": "PlannedVisit"
    }, 
    {
      "count": "7", 
      "name": "Protocol"
    }, 
    {
      "count": "23", 
      "name": "Reagent"
    }, 
    {
      "count": "1", 
      "name": "StudyFile"
    }, 
    {
      "count": "1", 
      "name": "StudyPersonnel"
    }, 
    {
      "count": "1", 
      "name": "StudyPubmed"
    }, 
    {
      "count": "69", 
      "name": "Subject"
    }
  ]
}