{
  "studyTitle": "Cooperation between DCs and basophils in TH2 response to papain", 
  "dataCompleteness": 2, 
  "studyAccession": "SDY256", 
  "downloadFiles": [
    {
      "filePurpose": "Flow cytometry result", 
      "manifest": "SDY256-DR14_Subject_2_Flow_cytometry_result.txt", 
      "fileNames": [
        {
          "manifest": "SDY256-DR14_Flow_cytometry_result_1.zip.content.txt", 
          "name": "SDY256-DR14_Flow_cytometry_result_1.zip", 
          "size": "1019.58MB"
        }
      ]
    }, 
    {
      "filePurpose": "Protocols", 
      "manifest": "", 
      "fileNames": [
        {
          "manifest": "SDY256-DR14_Protocols_1.zip.content.txt", 
          "name": "SDY256-DR14_Protocols_1.zip", 
          "size": "0.16MB"
        }
      ]
    }, 
    {
      "filePurpose": "StudyFiles", 
      "manifest": "", 
      "fileNames": [
        {
          "manifest": "SDY256-DR14_StudyFiles_1.zip.content.txt", 
          "name": "SDY256-DR14_StudyFiles_1.zip", 
          "size": "0.0MB"
        }
      ]
    }
  ], 
  "dataRelease": "DR14", 
  "studyTables": [
    {
      "count": "59", 
      "name": "ArmOrCohort"
    }, 
    {
      "count": "271", 
      "name": "Biosample"
    }, 
    {
      "count": "11", 
      "name": "Experiment"
    }, 
    {
      "count": "211", 
      "name": "Expsample"
    }, 
    {
      "count": "211", 
      "name": "FcsHeader"
    }, 
    {
      "count": "446", 
      "name": "FileInfo"
    }, 
    {
      "count": "1", 
      "name": "InclusionExclusion"
    }, 
    {
      "count": "1", 
      "name": "Period"
    }, 
    {
      "count": "8", 
      "name": "PlannedVisit"
    }, 
    {
      "count": "11", 
      "name": "Protocol"
    }, 
    {
      "count": "26", 
      "name": "Reagent"
    }, 
    {
      "count": "1", 
      "name": "StudyFile"
    }, 
    {
      "count": "1", 
      "name": "StudyLink"
    }, 
    {
      "count": "1", 
      "name": "StudyPersonnel"
    }, 
    {
      "count": "1", 
      "name": "StudyPubmed"
    }, 
    {
      "count": "211", 
      "name": "Subject"
    }
  ]
}