{
  "studyTitle": "Responses to Influenza Vaccination in Systemic Lupus Year 5 2009-2010", 
  "dataCompleteness": 2, 
  "studyAccession": "SDY200", 
  "downloadFiles": [
    {
      "filePurpose": "Flow cytometry result", 
      "manifest": "SDY200-DR14_Subject_2_Flow_cytometry_result.txt", 
      "fileNames": [
        {
          "manifest": "SDY200-DR14_Flow_cytometry_result_1.zip.content.txt", 
          "name": "SDY200-DR14_Flow_cytometry_result_1.zip", 
          "size": "66.54MB"
        }
      ]
    }, 
    {
      "filePurpose": "Flow cytometry compensation or control", 
      "manifest": "SDY200-DR14_Subject_2_Flow_cytometry_compensation_or_control.txt", 
      "fileNames": [
        {
          "manifest": "SDY200-DR14_Flow_cytometry_compensation_or_control_1.zip.content.txt", 
          "name": "SDY200-DR14_Flow_cytometry_compensation_or_control_1.zip", 
          "size": "15.97MB"
        }
      ]
    }, 
    {
      "filePurpose": "Protocols", 
      "manifest": "", 
      "fileNames": [
        {
          "manifest": "SDY200-DR14_Protocols_1.zip.content.txt", 
          "name": "SDY200-DR14_Protocols_1.zip", 
          "size": "0.53MB"
        }
      ]
    }, 
    {
      "filePurpose": "StudyFiles", 
      "manifest": "", 
      "fileNames": [
        {
          "manifest": "SDY200-DR14_StudyFiles_1.zip.content.txt", 
          "name": "SDY200-DR14_StudyFiles_1.zip", 
          "size": "0.01MB"
        }
      ]
    }
  ], 
  "dataRelease": "DR14", 
  "studyTables": [
    {
      "count": "2", 
      "name": "ArmOrCohort"
    }, 
    {
      "count": "1176", 
      "name": "Biosample"
    }, 
    {
      "count": "274", 
      "name": "ElispotResult"
    }, 
    {
      "count": "3", 
      "name": "Experiment"
    }, 
    {
      "count": "1055", 
      "name": "Expsample"
    }, 
    {
      "count": "635", 
      "name": "FcsHeader"
    }, 
    {
      "count": "1398", 
      "name": "FileInfo"
    }, 
    {
      "count": "134", 
      "name": "HaiResult"
    }, 
    {
      "count": "4", 
      "name": "InclusionExclusion"
    }, 
    {
      "count": "1", 
      "name": "Period"
    }, 
    {
      "count": "4", 
      "name": "PlannedVisit"
    }, 
    {
      "count": "6", 
      "name": "Protocol"
    }, 
    {
      "count": "6", 
      "name": "Reagent"
    }, 
    {
      "count": "1", 
      "name": "StudyFile"
    }, 
    {
      "count": "1", 
      "name": "StudyPersonnel"
    }, 
    {
      "count": "1", 
      "name": "StudyPubmed"
    }, 
    {
      "count": "73", 
      "name": "Subject"
    }
  ]
}