{
  "studyTitle": "Heterovariant cross-reactive B-cell responses induced by the 2009 pandemic influenza virus A subtype H1N1 vaccine", 
  "dataCompleteness": 2, 
  "studyAccession": "SDY202", 
  "downloadFiles": [
    {
      "filePurpose": "Flow cytometry result", 
      "manifest": "SDY202-DR14_Subject_2_Flow_cytometry_result.txt", 
      "fileNames": [
        {
          "manifest": "SDY202-DR14_Flow_cytometry_result_1.zip.content.txt", 
          "name": "SDY202-DR14_Flow_cytometry_result_1.zip", 
          "size": "1458.07MB"
        }, 
        {
          "manifest": "SDY202-DR14_Flow_cytometry_result_2.zip.content.txt", 
          "name": "SDY202-DR14_Flow_cytometry_result_2.zip", 
          "size": "1449.26MB"
        }, 
        {
          "manifest": "SDY202-DR14_Flow_cytometry_result_3.zip.content.txt", 
          "name": "SDY202-DR14_Flow_cytometry_result_3.zip", 
          "size": "1450.19MB"
        }, 
        {
          "manifest": "SDY202-DR14_Flow_cytometry_result_4.zip.content.txt", 
          "name": "SDY202-DR14_Flow_cytometry_result_4.zip", 
          "size": "454.66MB"
        }
      ]
    }, 
    {
      "filePurpose": "Flow cytometry compensation or control", 
      "manifest": "SDY202-DR14_Subject_2_Flow_cytometry_compensation_or_control.txt", 
      "fileNames": [
        {
          "manifest": "SDY202-DR14_Flow_cytometry_compensation_or_control_1.zip.content.txt", 
          "name": "SDY202-DR14_Flow_cytometry_compensation_or_control_1.zip", 
          "size": "7.02MB"
        }
      ]
    }, 
    {
      "filePurpose": "MBAA result", 
      "manifest": "SDY202-DR14_Subject_2_MBAA_result.txt", 
      "fileNames": [
        {
          "manifest": "SDY202-DR14_MBAA_result_1.zip.content.txt", 
          "name": "SDY202-DR14_MBAA_result_1.zip", 
          "size": "9.46MB"
        }
      ]
    }, 
    {
      "filePurpose": "Protocols", 
      "manifest": "", 
      "fileNames": [
        {
          "manifest": "SDY202-DR14_Protocols_1.zip.content.txt", 
          "name": "SDY202-DR14_Protocols_1.zip", 
          "size": "1.43MB"
        }
      ]
    }, 
    {
      "filePurpose": "StudyFiles", 
      "manifest": "", 
      "fileNames": [
        {
          "manifest": "SDY202-DR14_StudyFiles_1.zip.content.txt", 
          "name": "SDY202-DR14_StudyFiles_1.zip", 
          "size": "0.26MB"
        }
      ]
    }
  ], 
  "dataRelease": "DR14", 
  "studyTables": [
    {
      "count": "4", 
      "name": "ArmOrCohort"
    }, 
    {
      "count": "503", 
      "name": "Biosample"
    }, 
    {
      "count": "56", 
      "name": "ElisaResult"
    }, 
    {
      "count": "116", 
      "name": "ElispotResult"
    }, 
    {
      "count": "6", 
      "name": "Experiment"
    }, 
    {
      "count": "501", 
      "name": "ExpsampleMbaaDetail"
    }, 
    {
      "count": "1956", 
      "name": "Expsample"
    }, 
    {
      "count": "25852", 
      "name": "FcsAnalyzedResult"
    }, 
    {
      "count": "1225", 
      "name": "FcsHeader"
    }, 
    {
      "count": "764", 
      "name": "FileInfo"
    }, 
    {
      "count": "116", 
      "name": "HaiResult"
    }, 
    {
      "count": "23", 
      "name": "InclusionExclusion"
    }, 
    {
      "count": "31405", 
      "name": "MbaaResult"
    }, 
    {
      "count": "2", 
      "name": "Period"
    }, 
    {
      "count": "9", 
      "name": "PlannedVisit"
    }, 
    {
      "count": "7", 
      "name": "Protocol"
    }, 
    {
      "count": "28", 
      "name": "Reagent"
    }, 
    {
      "count": "48", 
      "name": "StandardCurve"
    }, 
    {
      "count": "1", 
      "name": "StudyFile"
    }, 
    {
      "count": "1", 
      "name": "StudyPersonnel"
    }, 
    {
      "count": "1", 
      "name": "StudyPubmed"
    }, 
    {
      "count": "79", 
      "name": "Subject"
    }
  ]
}