{
  "studyTitle": "Comparative Pathology in Ferrets Infected with H1N1 Influenza A Viruses Isolated from Different Hosts", 
  "dataCompleteness": 2, 
  "studyAccession": "SDY44", 
  "downloadFiles": [
    {
      "filePurpose": "Custom assay result", 
      "manifest": "SDY44-DR14_Subject_2_Custom_assay_result.txt", 
      "fileNames": [
        {
          "manifest": "SDY44-DR14_Custom_assay_result_1.zip.content.txt", 
          "name": "SDY44-DR14_Custom_assay_result_1.zip", 
          "size": "0.02MB"
        }
      ]
    }, 
    {
      "filePurpose": "Protocols", 
      "manifest": "", 
      "fileNames": [
        {
          "manifest": "SDY44-DR14_Protocols_1.zip.content.txt", 
          "name": "SDY44-DR14_Protocols_1.zip", 
          "size": "0.05MB"
        }
      ]
    }, 
    {
      "filePurpose": "StudyFiles", 
      "manifest": "", 
      "fileNames": [
        {
          "manifest": "SDY44-DR14_StudyFiles_1.zip.content.txt", 
          "name": "SDY44-DR14_StudyFiles_1.zip", 
          "size": "0.0MB"
        }
      ]
    }
  ], 
  "dataRelease": "DR14", 
  "studyTables": [
    {
      "count": "8", 
      "name": "ArmOrCohort"
    }, 
    {
      "count": "200", 
      "name": "Biosample"
    }, 
    {
      "count": "5", 
      "name": "Experiment"
    }, 
    {
      "count": "206", 
      "name": "Expsample"
    }, 
    {
      "count": "16", 
      "name": "FileInfo"
    }, 
    {
      "count": "1", 
      "name": "Period"
    }, 
    {
      "count": "6", 
      "name": "PlannedVisit"
    }, 
    {
      "count": "1", 
      "name": "Protocol"
    }, 
    {
      "count": "4", 
      "name": "Reagent"
    }, 
    {
      "count": "1", 
      "name": "StudyPersonnel"
    }, 
    {
      "count": "1", 
      "name": "StudyPubmed"
    }, 
    {
      "count": "8", 
      "name": "Subject"
    }
  ]
}