{
  "studyTitle": "Determine whether differences in TLR-responsiveness alter susceptibility to Biodefense priority pathogens using WN virus as a paradigm or responsiveness to vaccination using influenza as a model shared to Semi-Public Workspace (SPW) Project", 
  "dataCompleteness": 2, 
  "studyAccession": "SDY41", 
  "downloadFiles": [
    {
      "filePurpose": "Protocols", 
      "manifest": "", 
      "fileNames": [
        {
          "manifest": "SDY41-DR14_Protocols_1.zip.content.txt", 
          "name": "SDY41-DR14_Protocols_1.zip", 
          "size": "1.04MB"
        }
      ]
    }, 
    {
      "filePurpose": "StudyFiles", 
      "manifest": "", 
      "fileNames": [
        {
          "manifest": "SDY41-DR14_StudyFiles_1.zip.content.txt", 
          "name": "SDY41-DR14_StudyFiles_1.zip", 
          "size": "0.0MB"
        }
      ]
    }
  ], 
  "dataRelease": "DR14", 
  "studyTables": [
    {
      "count": "4", 
      "name": "ArmOrCohort"
    }, 
    {
      "count": "60", 
      "name": "Biosample"
    }, 
    {
      "count": "154", 
      "name": "ElisaResult"
    }, 
    {
      "count": "4", 
      "name": "Experiment"
    }, 
    {
      "count": "1180", 
      "name": "Expsample"
    }, 
    {
      "count": "1", 
      "name": "FileInfo"
    }, 
    {
      "count": "16", 
      "name": "InclusionExclusion"
    }, 
    {
      "count": "1026", 
      "name": "PcrResult"
    }, 
    {
      "count": "1", 
      "name": "Period"
    }, 
    {
      "count": "2", 
      "name": "PlannedVisit"
    }, 
    {
      "count": "5", 
      "name": "Protocol"
    }, 
    {
      "count": "21", 
      "name": "Reagent"
    }, 
    {
      "count": "35", 
      "name": "StudyGlossary"
    }, 
    {
      "count": "5", 
      "name": "StudyPersonnel"
    }, 
    {
      "count": "22", 
      "name": "StudyPubmed"
    }, 
    {
      "count": "903", 
      "name": "Subject"
    }
  ]
}