{
  "studyTitle": "Monozygotic and Dizygotic Twin Pair T-Cell Responses to Influenza Vaccination 2009", 
  "dataCompleteness": 2, 
  "studyAccession": "SDY514", 
  "downloadFiles": [
    {
      "filePurpose": "Flow cytometry result", 
      "manifest": "SDY514-DR14_Subject_2_Flow_cytometry_result.txt", 
      "fileNames": [
        {
          "manifest": "SDY514-DR14_Flow_cytometry_result_1.zip.content.txt", 
          "name": "SDY514-DR14_Flow_cytometry_result_1.zip", 
          "size": "1463.88MB"
        }, 
        {
          "manifest": "SDY514-DR14_Flow_cytometry_result_2.zip.content.txt", 
          "name": "SDY514-DR14_Flow_cytometry_result_2.zip", 
          "size": "1443.7MB"
        }, 
        {
          "manifest": "SDY514-DR14_Flow_cytometry_result_3.zip.content.txt", 
          "name": "SDY514-DR14_Flow_cytometry_result_3.zip", 
          "size": "1433.16MB"
        }
      ]
    }, 
    {
      "filePurpose": "Flow cytometry compensation or control", 
      "manifest": "SDY514-DR14_Subject_2_Flow_cytometry_compensation_or_control.txt", 
      "fileNames": [
        {
          "manifest": "SDY514-DR14_Flow_cytometry_compensation_or_control_1.zip.content.txt", 
          "name": "SDY514-DR14_Flow_cytometry_compensation_or_control_1.zip", 
          "size": "4.59MB"
        }
      ]
    }, 
    {
      "filePurpose": "Protocols", 
      "manifest": "", 
      "fileNames": [
        {
          "manifest": "SDY514-DR14_Protocols_1.zip.content.txt", 
          "name": "SDY514-DR14_Protocols_1.zip", 
          "size": "1.67MB"
        }
      ]
    }, 
    {
      "filePurpose": "StudyFiles", 
      "manifest": "", 
      "fileNames": [
        {
          "manifest": "SDY514-DR14_StudyFiles_1.zip.content.txt", 
          "name": "SDY514-DR14_StudyFiles_1.zip", 
          "size": "0.0MB"
        }
      ]
    }
  ], 
  "dataRelease": "DR14", 
  "studyTables": [
    {
      "count": "8", 
      "name": "ArmOrCohort"
    }, 
    {
      "count": "295", 
      "name": "Biosample"
    }, 
    {
      "count": "4", 
      "name": "Experiment"
    }, 
    {
      "count": "613", 
      "name": "ExpsampleMbaaDetail"
    }, 
    {
      "count": "1754", 
      "name": "Expsample"
    }, 
    {
      "count": "8468", 
      "name": "FcsAnalyzedResult"
    }, 
    {
      "count": "991", 
      "name": "FcsHeader"
    }, 
    {
      "count": "618", 
      "name": "FileInfo"
    }, 
    {
      "count": "670", 
      "name": "HaiResult"
    }, 
    {
      "count": "25", 
      "name": "InclusionExclusion"
    }, 
    {
      "count": "67045", 
      "name": "MbaaResult"
    }, 
    {
      "count": "3", 
      "name": "Period"
    }, 
    {
      "count": "3", 
      "name": "PlannedVisit"
    }, 
    {
      "count": "7", 
      "name": "Protocol"
    }, 
    {
      "count": "16", 
      "name": "Reagent"
    }, 
    {
      "count": "576", 
      "name": "StandardCurve"
    }, 
    {
      "count": "1", 
      "name": "StudyFile"
    }, 
    {
      "count": "1", 
      "name": "StudyLink"
    }, 
    {
      "count": "1", 
      "name": "StudyPersonnel"
    }, 
    {
      "count": "1", 
      "name": "StudyPubmed"
    }, 
    {
      "count": "78", 
      "name": "Subject"
    }
  ]
}