{
  "studyTitle": "Shapiro ITN005CT:  Islet Transplantation in Type 1 Diabetic Patients", 
  "dataCompleteness": 2, 
  "studyAccession": "SDY567", 
  "downloadFiles": [
    {
      "filePurpose": "Protocols", 
      "manifest": "", 
      "fileNames": [
        {
          "manifest": "SDY567-DR14_Protocols_1.zip.content.txt", 
          "name": "SDY567-DR14_Protocols_1.zip", 
          "size": "0.01MB"
        }
      ]
    }, 
    {
      "filePurpose": "StudyFiles", 
      "manifest": "", 
      "fileNames": [
        {
          "manifest": "SDY567-DR14_StudyFiles_1.zip.content.txt", 
          "name": "SDY567-DR14_StudyFiles_1.zip", 
          "size": "1.66MB"
        }
      ]
    }
  ], 
  "dataRelease": "DR14", 
  "studyTables": [
    {
      "count": "1", 
      "name": "ArmOrCohort"
    }, 
    {
      "count": "23", 
      "name": "InclusionExclusion"
    }, 
    {
      "count": "1", 
      "name": "Period"
    }, 
    {
      "count": "23", 
      "name": "PlannedVisit"
    }, 
    {
      "count": "1", 
      "name": "Protocol"
    }, 
    {
      "count": "42", 
      "name": "StudyFile"
    }, 
    {
      "count": "2", 
      "name": "StudyLink"
    }, 
    {
      "count": "1", 
      "name": "StudyPersonnel"
    }, 
    {
      "count": "2", 
      "name": "StudyPubmed"
    }, 
    {
      "count": "34", 
      "name": "Subject"
    }
  ]
}