{
  "studyTitle": "Systems Biology of 2007 Influenza Vaccination in Humans (See companion studies SDY269 2008 / SDY270 2009 / SDY271 Role for CaMKIV in the Regulation of Antibody Responses to Influenza Vaccine)", 
  "dataCompleteness": 2, 
  "studyAccession": "SDY61", 
  "downloadFiles": [
    {
      "filePurpose": "Flow cytometry result", 
      "manifest": "SDY61-DR14_Subject_2_Flow_cytometry_result.txt", 
      "fileNames": [
        {
          "manifest": "SDY61-DR14_Flow_cytometry_result_1.zip.content.txt", 
          "name": "SDY61-DR14_Flow_cytometry_result_1.zip", 
          "size": "22.73MB"
        }
      ]
    }, 
    {
      "filePurpose": "Flow cytometry description", 
      "manifest": "SDY61-DR14_Subject_2_Flow_cytometry_description.txt", 
      "fileNames": [
        {
          "manifest": "SDY61-DR14_Flow_cytometry_description_1.zip.content.txt", 
          "name": "SDY61-DR14_Flow_cytometry_description_1.zip", 
          "size": "0.0MB"
        }
      ]
    }, 
    {
      "filePurpose": "Gene expression result", 
      "manifest": "SDY61-DR14_Subject_2_Gene_expression_result.txt", 
      "fileNames": [
        {
          "manifest": "SDY61-DR14_Gene_expression_result_1.zip.content.txt", 
          "name": "SDY61-DR14_Gene_expression_result_1.zip", 
          "size": "154.98MB"
        }
      ]
    }, 
    {
      "filePurpose": "Protocols", 
      "manifest": "", 
      "fileNames": [
        {
          "manifest": "SDY61-DR14_Protocols_1.zip.content.txt", 
          "name": "SDY61-DR14_Protocols_1.zip", 
          "size": "0.04MB"
        }
      ]
    }, 
    {
      "filePurpose": "StudyFiles", 
      "manifest": "", 
      "fileNames": [
        {
          "manifest": "SDY61-DR14_StudyFiles_1.zip.content.txt", 
          "name": "SDY61-DR14_StudyFiles_1.zip", 
          "size": "0.01MB"
        }
      ]
    }
  ], 
  "dataRelease": "DR14", 
  "studyTables": [
    {
      "count": "2", 
      "name": "ArmOrCohort"
    }, 
    {
      "count": "86", 
      "name": "Biosample"
    }, 
    {
      "count": "4", 
      "name": "Experiment"
    }, 
    {
      "count": "112", 
      "name": "Expsample"
    }, 
    {
      "count": "4", 
      "name": "FcsHeader"
    }, 
    {
      "count": "70", 
      "name": "FileInfo"
    }, 
    {
      "count": "54", 
      "name": "HaiResult"
    }, 
    {
      "count": "1248", 
      "name": "PcrResult"
    }, 
    {
      "count": "1", 
      "name": "Period"
    }, 
    {
      "count": "5", 
      "name": "PlannedVisit"
    }, 
    {
      "count": "2", 
      "name": "Protocol"
    }, 
    {
      "count": "9", 
      "name": "Reagent"
    }, 
    {
      "count": "1", 
      "name": "StudyFile"
    }, 
    {
      "count": "1", 
      "name": "StudyLink"
    }, 
    {
      "count": "1", 
      "name": "StudyPersonnel"
    }, 
    {
      "count": "1", 
      "name": "StudyPubmed"
    }, 
    {
      "count": "12", 
      "name": "Subject"
    }
  ]
}