{
  "studyTitle": "Systems Biology Approach to Analysis of 2010-11 TIV Fluzone Influenza Vaccine Response in Healthy Individuals", 
  "dataCompleteness": 2, 
  "studyAccession": "SDY74", 
  "downloadFiles": [
    {
      "filePurpose": "Flow cytometry result", 
      "manifest": "SDY74-DR14_Subject_2_Flow_cytometry_result.txt", 
      "fileNames": [
        {
          "manifest": "SDY74-DR14_Flow_cytometry_result_1.zip.content.txt", 
          "name": "SDY74-DR14_Flow_cytometry_result_1.zip", 
          "size": "66.41MB"
        }
      ]
    }, 
    {
      "filePurpose": "Gene expression result", 
      "manifest": "SDY74-DR14_Subject_2_Gene_expression_result.txt", 
      "fileNames": [
        {
          "manifest": "SDY74-DR14_Gene_expression_result_1.zip.content.txt", 
          "name": "SDY74-DR14_Gene_expression_result_1.zip", 
          "size": "28.31MB"
        }
      ]
    }, 
    {
      "filePurpose": "Protocols", 
      "manifest": "", 
      "fileNames": [
        {
          "manifest": "SDY74-DR14_Protocols_1.zip.content.txt", 
          "name": "SDY74-DR14_Protocols_1.zip", 
          "size": "4.32MB"
        }
      ]
    }, 
    {
      "filePurpose": "StudyFiles", 
      "manifest": "", 
      "fileNames": [
        {
          "manifest": "SDY74-DR14_StudyFiles_1.zip.content.txt", 
          "name": "SDY74-DR14_StudyFiles_1.zip", 
          "size": "0.0MB"
        }
      ]
    }
  ], 
  "dataRelease": "DR14", 
  "studyTables": [
    {
      "count": "1", 
      "name": "ArmOrCohort"
    }, 
    {
      "count": "84", 
      "name": "Biosample"
    }, 
    {
      "count": "2", 
      "name": "Experiment"
    }, 
    {
      "count": "519", 
      "name": "Expsample"
    }, 
    {
      "count": "459", 
      "name": "FcsHeader"
    }, 
    {
      "count": "919", 
      "name": "FileInfo"
    }, 
    {
      "count": "1", 
      "name": "Period"
    }, 
    {
      "count": "8", 
      "name": "PlannedVisit"
    }, 
    {
      "count": "3", 
      "name": "Protocol"
    }, 
    {
      "count": "5", 
      "name": "Reagent"
    }, 
    {
      "count": "1", 
      "name": "StudyPersonnel"
    }, 
    {
      "count": "1", 
      "name": "StudyPubmed"
    }, 
    {
      "count": "12", 
      "name": "Subject"
    }
  ]
}